Name           ID           Screen Name           #Tweets        Mentions
sara         3029045643       _saraheller      1     0
Sara         2496683089       whynotsara      1     0
sara         3451468156       sara_5617      2     0
sara         744888927169949697       Saralp0899      1     0
Sara         309332601       SaraAAlQuraishi      1     0
Sara         2270908437       onesaraspecial      1     0
sara         98692273       AnnaSaraa      1     0
Sara         801585039465136128       semh_bt      1     0
Sara         981623758422249472       saraissmiling_      1     0
sara         591605847       visualjiminie      1     0
sara         728671224340070401       DfgbgA      1     0
sara         799313982809116672       saraalcmd      1     0
Sara         141517177       verona13thmay      1     0
sara         284565345       saraschatje      1     0
sara         199238200       marvelghost      1     0
Sara         2417448626       alanisss_17      1     0
sara         1219636501       sarafuckingozil      1     0
Sara         269772605       Saraalhawajj      1     0
sara         252406584       sinsaralyyours      1     0
Sara         3096673440       Sara__522      1     0
Sara         4648917613       Saradulib      1     0
sara         902684383781543936       bIuegurI      1     0
Sara         788920064737054723       slsilva13      1     0
sara         2591896129       dearunjverse      1     0
Sara         983683366712209410       qasrrawii      1     0
